Proyecto Individual
…
# Ver la tabla resultante
print(conteo_sexo_canton)

# A tibble: 6,053 × 5
   sexo   nombre_canton causamuer des_causa                        total_muertes
   <chr>  <chr>         <chr+lbl> <chr+lbl>                                <int>
 1 Hombre Abangares     B205      B205 - Enfermedad por VIH, resu…             1
 2 Hombre Abangares     B238      B238 - Enfermedad por VIH, resu…             1
 3 Hombre Abangares     C069      C069 - Tumor maligno de la boca…             2
 4 Hombre Abangares     C169      C169 - Tumor maligno del estóma…             3
 5 Hombre Abangares     C189      C189 - Tumor maligno del colon,…             1
 6 Hombre Abangares     C200      C200 - Tumor maligno del recto               2
 7 Hombre Abangares     C220      C220 - Carcinoma de células hep…             1
 8 Hombre Abangares     C229      C229 - Tumor maligno del hígado…             1
 9 Hombre Abangares     C439      C439 - Melanoma maligno de piel…             1
10 Hombre Abangares     C446      C446 - Tumor maligno de la piel…             1
# ℹ 6,043 more rows
…
print(total_defunciones_canton)

# A tibble: 84 × 3
   nombre_canton Hombre Mujer
   <chr>          <int> <int>
 1 Abangares         57    51
 2 Acosta            58    53
 3 Alajuela          60    60
 4 Alajuelita        60    60
 5 Alvarado          45    45
 6 Aserrí            60    59
 7 Atenas            59    56
 8 Bagaces           58    44
 9 Barva             60    60
10 Belén             56    53
# ℹ 74 more rows
